%YAML 1.1
%TAG !u! tag:unity3d.com,2011:
--- !u!74 &7400000
AnimationClip:
  m_ObjectHideFlags: 0
  m_CorrespondingSourceObject: {fileID: 0}
  m_PrefabInstance: {fileID: 0}
  m_PrefabAsset: {fileID: 0}
  m_Name: CharAnimIdle
  serializedVersion: 6
  m_Legacy: 0
  m_Compressed: 0
  m_UseHighQualityCurve: 1
  m_RotationCurves: []
  m_CompressedRotationCurves: []
  m_EulerCurves: []
  m_PositionCurves: []
  m_ScaleCurves: []
  m_FloatCurves: []
  m_PPtrCurves:
  - curve:
    - time: 0
      value: {fileID: -4209299567846132795, guid: a5748fe1a5783754bbe5d6fc983c4047,
        type: 3}
    - time: 0.083333336
      value: {fileID: 6490644460393686646, guid: a5748fe1a5783754bbe5d6fc983c4047,
        type: 3}
    - time: 0.16666667
      value: {fileID: 2372496201923917237, guid: a5748fe1a5783754bbe5d6fc983c4047,
        type: 3}
    - time: 0.25
      value: {fileID: -6917534206843718041, guid: a5748fe1a5783754bbe5d6fc983c4047,
        type: 3}
    - time: 0.33333334
      value: {fileID: 28239803073882360, guid: a5748fe1a5783754bbe5d6fc983c4047, type: 3}
    - time: 0.41666666
      value: {fileID: 3589560634578829508, guid: a5748fe1a5783754bbe5d6fc983c4047,
        type: 3}
    - time: 0.5
      value: {fileID: 1043231651401069186, guid: a5748fe1a5783754bbe5d6fc983c4047,
        type: 3}
    - time: 0.5833333
      value: {fileID: -3583009203174942335, guid: a5748fe1a5783754bbe5d6fc983c4047,
        type: 3}
    - time: 0.6666667
      value: {fileID: -7955673881645506066, guid: a5748fe1a5783754bbe5d6fc983c4047,
        type: 3}
    - time: 0.75
      value: {fileID: -971307314646767479, guid: a5748fe1a5783754bbe5d6fc983c4047,
        type: 3}
    - time: 0.8333333
      value: {fileID: -5446762938732847072, guid: a5748fe1a5783754bbe5d6fc983c4047,
        type: 3}
    - time: 0.9166667
      value: {fileID: 2529487276463362331, guid: a5748fe1a5783754bbe5d6fc983c4047,
        type: 3}
    - time: 1
      value: {fileID: -3015398700613566115, guid: a5748fe1a5783754bbe5d6fc983c4047,
        type: 3}
    - time: 1.0833334
      value: {fileID: 3304525433422795038, guid: a5748fe1a5783754bbe5d6fc983c4047,
        type: 3}
    - time: 1.1666666
      value: {fileID: -8544985683091850668, guid: a5748fe1a5783754bbe5d6fc983c4047,
        type: 3}
    - time: 1.25
      value: {fileID: 9113775309267425457, guid: a5748fe1a5783754bbe5d6fc983c4047,
        type: 3}
    - time: 1.3333334
      value: {fileID: 476572153324118187, guid: a5748fe1a5783754bbe5d6fc983c4047,
        type: 3}
    - time: 1.4166666
      value: {fileID: 6792133253948109065, guid: a5748fe1a5783754bbe5d6fc983c4047,
        type: 3}
    - time: 1.5
      value: {fileID: -4594906890189898462, guid: a5748fe1a5783754bbe5d6fc983c4047,
        type: 3}
    - time: 1.5833334
      value: {fileID: -185822581431738301, guid: a5748fe1a5783754bbe5d6fc983c4047,
        type: 3}
    attribute: m_Sprite
    path: 
    classID: 212
    script: {fileID: 0}
  m_SampleRate: 12
  m_WrapMode: 0
  m_Bounds:
    m_Center: {x: 0, y: 0, z: 0}
    m_Extent: {x: 0, y: 0, z: 0}
  m_ClipBindingConstant:
    genericBindings:
    - serializedVersion: 2
      path: 0
      attribute: 0
      script: {fileID: 0}
      typeID: 212
      customType: 23
      isPPtrCurve: 1
    pptrCurveMapping:
    - {fileID: -4209299567846132795, guid: a5748fe1a5783754bbe5d6fc983c4047, type: 3}
    - {fileID: 6490644460393686646, guid: a5748fe1a5783754bbe5d6fc983c4047, type: 3}
    - {fileID: 2372496201923917237, guid: a5748fe1a5783754bbe5d6fc983c4047, type: 3}
    - {fileID: -6917534206843718041, guid: a5748fe1a5783754bbe5d6fc983c4047, type: 3}
    - {fileID: 28239803073882360, guid: a5748fe1a5783754bbe5d6fc983c4047, type: 3}
    - {fileID: 3589560634578829508, guid: a5748fe1a5783754bbe5d6fc983c4047, type: 3}
    - {fileID: 1043231651401069186, guid: a5748fe1a5783754bbe5d6fc983c4047, type: 3}
    - {fileID: -3583009203174942335, guid: a5748fe1a5783754bbe5d6fc983c4047, type: 3}
    - {fileID: -7955673881645506066, guid: a5748fe1a5783754bbe5d6fc983c4047, type: 3}
    - {fileID: -971307314646767479, guid: a5748fe1a5783754bbe5d6fc983c4047, type: 3}
    - {fileID: -5446762938732847072, guid: a5748fe1a5783754bbe5d6fc983c4047, type: 3}
    - {fileID: 2529487276463362331, guid: a5748fe1a5783754bbe5d6fc983c4047, type: 3}
    - {fileID: -3015398700613566115, guid: a5748fe1a5783754bbe5d6fc983c4047, type: 3}
    - {fileID: 3304525433422795038, guid: a5748fe1a5783754bbe5d6fc983c4047, type: 3}
    - {fileID: -8544985683091850668, guid: a5748fe1a5783754bbe5d6fc983c4047, type: 3}
    - {fileID: 9113775309267425457, guid: a5748fe1a5783754bbe5d6fc983c4047, type: 3}
    - {fileID: 476572153324118187, guid: a5748fe1a5783754bbe5d6fc983c4047, type: 3}
    - {fileID: 6792133253948109065, guid: a5748fe1a5783754bbe5d6fc983c4047, type: 3}
    - {fileID: -4594906890189898462, guid: a5748fe1a5783754bbe5d6fc983c4047, type: 3}
    - {fileID: -185822581431738301, guid: a5748fe1a5783754bbe5d6fc983c4047, type: 3}
  m_AnimationClipSettings:
    serializedVersion: 2
    m_AdditiveReferencePoseClip: {fileID: 0}
    m_AdditiveReferencePoseTime: 0
    m_StartTime: 0
    m_StopTime: 1.6666667
    m_OrientationOffsetY: 0
    m_Level: 0
    m_CycleOffset: 0
    m_HasAdditiveReferencePose: 0
    m_LoopTime: 1
    m_LoopBlend: 0
    m_LoopBlendOrientation: 0
    m_LoopBlendPositionY: 0
    m_LoopBlendPositionXZ: 0
    m_KeepOriginalOrientation: 0
    m_KeepOriginalPositionY: 1
    m_KeepOriginalPositionXZ: 0
    m_HeightFromFeet: 0
    m_Mirror: 0
  m_EditorCurves: []
  m_EulerEditorCurves: []
  m_HasGenericRootTransform: 0
  m_HasMotionFloatCurves: 0
  m_Events: []
